digraph {
	compound = "true"
	newrank = "true"
	subgraph "root" {
		"[root] aws_instance.single-server" [label = "aws_instance.single-server", shape = "box"]
		"[root] aws_security_group.web" [label = "aws_security_group.web", shape = "box"]
		"[root] provider.aws" [label = "provider.aws", shape = "diamond"]
		"[root] aws_instance.single-server" -> "[root] aws_security_group.web"
		"[root] aws_security_group.web" -> "[root] provider.aws"
		"[root] meta.count-boundary (count boundary fixup)" -> "[root] aws_instance.single-server"
		"[root] provider.aws (close)" -> "[root] aws_instance.single-server"
		"[root] root" -> "[root] meta.count-boundary (count boundary fixup)"
		"[root] root" -> "[root] provider.aws (close)"
	}
}
